Assignment 04
…
3.

If you have the name of a variable stored in an object, e.g. var <- "mpg", how can you extract the reference variable from a tibble?

var <- "mpg"
ct <- as.tibble(mtcars)
ct[var]

## # A tibble: 32 x 1
##      mpg
##    <dbl>
##  1  21.0
##  2  21.0
##  3  22.8
##  4  21.4
##  5  18.7
##  6  18.1
##  7  14.3
##  8  24.4
##  9  22.8
## 10  19.2
## # ... with 22 more rows
…
